…
B
-

    dat %>%
      group_by(Territorio) %>% 
      summarise(ventas_territorio = sum(Venta)) %>% 
      arrange(ventas_territorio)

    ## `summarise()` ungrouping output (override with `.groups` argument)

    ## # A tibble: 104 x 2
    ##    Territorio ventas_territorio
    ##    <chr>                  <dbl>
    ##  1 e6fd9da9                18.2
    ##  2 13b223c9                49.9
    ##  3 368301e2               121. 
    ##  4 79428560               132  
    ##  5 e034e3c8               247. 
    ##  6 0bfe69a0               384. 
    ##  7 456278b8               493. 
    ##  8 4163fa3f               580. 
    ##  9 3e0d75d0               647. 
    ## 10 aed8e579               747. 
    ## # ... with 94 more rows
…
    df_consolidado <- inner_join(df_perdidas,
                                 df_ingresos,
                                 by="Territorio") %>%
                      mutate(rate_perdida_porcentaje = abs(perdidas_territorio/ingresos_territorio*100))

    # OJO a aca solo considero los territorios donde perdi dinero. Al hacer el inner join perdi
    # positivos que no tenian ninguna venta "negativa"
    df_consolidado %>% arrange(desc(rate_perdida_porcentaje))

    ## # A tibble: 79 x 4
    ##    Territorio perdidas_territorio ingresos_territorio rate_perdida_porcentaje
    ##    <chr>                    <dbl>               <dbl>                   <dbl>
    ##  1 68de9759                -226.                3930.                    5.74
    ##  2 8682908b                -245.                4857.                    5.05
    ##  3 45c0376d                -475.               11121.                    4.27
    ##  4 0320288f                 -33.6                879.                    3.82
    ##  5 4814799f                -664.               24928.                    2.67
    ##  6 5a464f3f                -126.                4921.                    2.57
    ##  7 0bbe6418                -218.                9110.                    2.39
    ##  8 d43e8f6a                -136.                5847.                    2.33
    ##  9 6eff1266                -176.                7616.                    2.31
    ## 10 c31adb2f                -230.               10114.                    2.28
    ## # ... with 69 more rows
…
